^C:\USERS\VIKTOR\DOCUMENTS\WORKSPACES\FALCONSUITE\MODULES\MATH\MATH_UTIL.CPP|C:\USERS\VIKTOR\DOCUMENTS\WORKSPACES\FALCONSUITE\MODULES\MATH\VEC.CPP
C:\USERS\VIKTOR\DOCUMENTS\WORKSPACES\FALCONSUITE\BUILD-VS-VK\MODULES\FALCONMATH.DIR\DEBUG\FALCONMATH.PDB
C:\USERS\VIKTOR\DOCUMENTS\WORKSPACES\FALCONSUITE\BUILD-VS-VK\MODULES\FALCONMATH.DIR\DEBUG\VEC.OBJ
C:\USERS\VIKTOR\DOCUMENTS\WORKSPACES\FALCONSUITE\BUILD-VS-VK\MODULES\FALCONMATH.DIR\DEBUG\MATH_UTIL.OBJ
^C:\USERS\VIKTOR\DOCUMENTS\WORKSPACES\FALCONSUITE\MODULES\MATH\MATH_UTIL.CPP
C:\USERS\VIKTOR\DOCUMENTS\WORKSPACES\FALCONSUITE\BUILD-VS-VK\MODULES\FALCONMATH.DIR\DEBUG\FALCONMATH.PDB
^C:\USERS\VIKTOR\DOCUMENTS\WORKSPACES\FALCONSUITE\MODULES\MATH\VEC.CPP
C:\USERS\VIKTOR\DOCUMENTS\WORKSPACES\FALCONSUITE\BUILD-VS-VK\MODULES\FALCONMATH.DIR\DEBUG\FALCONMATH.PDB
